{
    "identityPoolName": "cognitoc36e7816_identitypool_c36e7816",
    "allowUnauthenticatedIdentities": false,
    "thirdPartyAuth": false,
    "lambdaLogPolicy": "cognitoc36e7816_lambda_log_policy",
    "openIdLambdaRoleName": "cognitoc36e7816_openid_lambda_role",
    "openIdRolePolicy": "cognitoc36e7816_openid_pass_role_policy",
    "openIdLambdaIAMPolicy": "cognitoc36e7816_openid_lambda_iam_policy",
    "openIdLogPolicy": "cognitoc36e7816_openid_lambda_log_policy",
    "userPoolName": "cognitoc36e7816_userpool_c36e7816",
    "autoVerifiedAttributes": [
        "email"
    ],
    "mfaConfiguration": "OFF",
    "mfaTypes": [
        "SMS Text Message"
    ],
    "roleName": "cognitoc36e7816_sns-role",
    "roleExternalId": "cognitoc36e7816_role_external_id",
    "policyName": "cognitoc36e7816-sns-policy",
    "smsAuthenticationMessage": "Your authentication code is {####}",
    "smsVerificationMessage": "Your verification code is {####}",
    "emailVerificationSubject": "Your verification code",
    "emailVerificationMessage": "Your verification code is {####}",
    "defaultPasswordPolicy": false,
    "passwordPolicyMinLength": 8,
    "passwordPolicyCharacters": [
        "Requires Lowercase",
        "Requires Uppercase",
        "Requires Numbers",
        "Requires Symbols"
    ],
    "requiredAttributes": [
        "email"
    ],
    "userpoolClientName": "cognitoc36e7816_app_client",
    "userpoolClientGenerateSecret": true,
    "userpoolClientRefreshTokenValidity": 30,
    "userpoolClientReadAttributes": [
        "email"
    ],
    "mfaLambdaRole": "cognitoc36e7816_totp_lambda_role",
    "mfaLambdaLogPolicy": "cognitoc36e7816_totp_lambda_log_policy",
    "mfaPassRolePolicy": "cognitoc36e7816_totp_pass_role_policy",
    "mfaLambdaIAMPolicy": "cognitoc36e7816_totp_lambda_iam_policy",
    "userpoolClientLambdaRole": "cognitoc36e7816_userpoolclient_lambda_role",
    "userpoolClientLogPolicy": "cognitoc36e7816_userpoolclient_lambda_log_policy",
    "userpoolClientLambdaPolicy": "cognitoc36e7816_userpoolclient_lambda_iam_policy",
    "userpoolClientSetAttributes": false,
    "useDefault": "default",
    "unAuthRoleName": "mlg-20181004154326-unauthRole",
    "authRoleName": "mlg-20181004154326-authRole",
    "unAuthRoleArn": "arn:aws:iam::840348290893:role/mlg-20181004154326-unauthRole",
    "authRoleArn": "arn:aws:iam::840348290893:role/mlg-20181004154326-authRole",
    "resourceName": "cognitoc36e7816",
    "authSelections": "identityPoolAndUserPool"
}